Flash R
…
## # A tibble: 1 x 1
##   city   
##   <chr>  
## 1 Abilene

txhousing[2,]

## # A tibble: 1 x 9
##   city     year month sales  volume median listings inventory  date
##   <chr>   <int> <int> <dbl>   <dbl>  <dbl>    <dbl>     <dbl> <dbl>
## 1 Abilene  2000     2    98 6505000  58700      746       6.6 2000.

txhousing[,5]

## # A tibble: 8,602 x 1
##      volume
##       <dbl>
##  1  5380000
##  2  6505000
##  3  9285000
##  4  9730000
##  5 10590000
##  6 13910000
##  7 12635000
##  8 10710000
##  9  7615000
## 10  7040000
## #  with 8,592 more rows

txhousing[txhousing$year < 2003,]

## # A tibble: 1,656 x 9
##    city     year month sales   volume median listings inventory  date
##    <chr>   <int> <int> <dbl>    <dbl>  <dbl>    <dbl>     <dbl> <dbl>
##  1 Abilene  2000     1    72  5380000  71400      701       6.3 2000 
##  2 Abilene  2000     2    98  6505000  58700      746       6.6 2000.
##  3 Abilene  2000     3   130  9285000  58100      784       6.8 2000.
##  4 Abilene  2000     4    98  9730000  68600      785       6.9 2000.
##  5 Abilene  2000     5   141 10590000  67300      794       6.8 2000.
##  6 Abilene  2000     6   156 13910000  66900      780       6.6 2000.
##  7 Abilene  2000     7   152 12635000  73500      742       6.2 2000.
##  8 Abilene  2000     8   131 10710000  75000      765       6.4 2001.
##  9 Abilene  2000     9   104  7615000  64500      771       6.5 2001.
## 10 Abilene  2000    10   101  7040000  59300      764       6.6 2001.
## #  with 1,646 more rows

txhousing[,c(1:4)]

## # A tibble: 8,602 x 4
##    city     year month sales
##    <chr>   <int> <int> <dbl>
##  1 Abilene  2000     1    72
##  2 Abilene  2000     2    98
##  3 Abilene  2000     3   130
##  4 Abilene  2000     4    98
##  5 Abilene  2000     5   141
##  6 Abilene  2000     6   156
##  7 Abilene  2000     7   152
##  8 Abilene  2000     8   131
##  9 Abilene  2000     9   104
## 10 Abilene  2000    10   101
## #  with 8,592 more rows

txhousing[txhousing$city=="San Antonio",c(1:6,8)]

## # A tibble: 187 x 7
##    city         year month sales    volume median inventory
##    <chr>       <int> <int> <dbl>     <dbl>  <dbl>     <dbl>
##  1 San Antonio  2000     1   820  98974924  90900       4.7
##  2 San Antonio  2000     2  1075 120851076  86000       4.7
##  3 San Antonio  2000     3  1433 167748201  87000       4.9
##  4 San Antonio  2000     4  1263 145280248  90200       5  
##  5 San Antonio  2000     5  1574 183281564  91200       5  
##  6 San Antonio  2000     6  1666 210779154 100100       5  
##  7 San Antonio  2000     7  1508 185816640 100500       4.9
##  8 San Antonio  2000     8  1626 195515195  93400       5.2
##  9 San Antonio  2000     9  1300 156643797  94800       5.2
## 10 San Antonio  2000    10  1192 141630200  93500       5.2
## #  with 177 more rows

AbilineData <- txhousing[txhousing$city == "Abilene",]

This could be an entire lecture by itself!!! It is important to know how Rs indexing works, but in the year 2019 there is no need to be using base R command to index. We will talk more about the tidyverse tomorrow, but the following code does the exact same indexing as the base R code above, but is much more human readable.

Tidyverse

txhousing %>%
  filter(year < 2003)

## # A tibble: 1,656 x 9
##    city     year month sales   volume median listings inventory  date
##    <chr>   <int> <int> <dbl>    <dbl>  <dbl>    <dbl>     <dbl> <dbl>
##  1 Abilene  2000     1    72  5380000  71400      701       6.3 2000 
##  2 Abilene  2000     2    98  6505000  58700      746       6.6 2000.
##  3 Abilene  2000     3   130  9285000  58100      784       6.8 2000.
##  4 Abilene  2000     4    98  9730000  68600      785       6.9 2000.
##  5 Abilene  2000     5   141 10590000  67300      794       6.8 2000.
##  6 Abilene  2000     6   156 13910000  66900      780       6.6 2000.
##  7 Abilene  2000     7   152 12635000  73500      742       6.2 2000.
##  8 Abilene  2000     8   131 10710000  75000      765       6.4 2001.
##  9 Abilene  2000     9   104  7615000  64500      771       6.5 2001.
## 10 Abilene  2000    10   101  7040000  59300      764       6.6 2001.
## #  with 1,646 more rows

txhousing %>%
  select(city:volume)

## # A tibble: 8,602 x 5
##    city     year month sales   volume
##    <chr>   <int> <int> <dbl>    <dbl>
##  1 Abilene  2000     1    72  5380000
##  2 Abilene  2000     2    98  6505000
##  3 Abilene  2000     3   130  9285000
##  4 Abilene  2000     4    98  9730000
##  5 Abilene  2000     5   141 10590000
##  6 Abilene  2000     6   156 13910000
##  7 Abilene  2000     7   152 12635000
##  8 Abilene  2000     8   131 10710000
##  9 Abilene  2000     9   104  7615000
## 10 Abilene  2000    10   101  7040000
## #  with 8,592 more rows

txhousing %>%
  select(1:6, inventory) %>%
  filter(city == "San Antonio")

## # A tibble: 187 x 7
##    city         year month sales    volume median inventory
##    <chr>       <int> <int> <dbl>     <dbl>  <dbl>     <dbl>
##  1 San Antonio  2000     1   820  98974924  90900       4.7
##  2 San Antonio  2000     2  1075 120851076  86000       4.7
##  3 San Antonio  2000     3  1433 167748201  87000       4.9
##  4 San Antonio  2000     4  1263 145280248  90200       5  
##  5 San Antonio  2000     5  1574 183281564  91200       5  
##  6 San Antonio  2000     6  1666 210779154 100100       5  
##  7 San Antonio  2000     7  1508 185816640 100500       4.9
##  8 San Antonio  2000     8  1626 195515195  93400       5.2
##  9 San Antonio  2000     9  1300 156643797  94800       5.2
## 10 San Antonio  2000    10  1192 141630200  93500       5.2
## #  with 177 more rows
…
txhousing_only_el_paso <- txhousing[txhousing$city == "El Paso",]
iris_only_only_el_paso_2005_2011 <- txhousing_only_el_paso[txhousing_only_el_paso$year >= 2011,]
iris_only_only_el_paso_2005_2011[,c(1,5)]

## # A tibble: 55 x 2
##    city      volume
##    <chr>      <dbl>
##  1 El Paso 66136913
##  2 El Paso 44840808
##  3 El Paso 63884923
##  4 El Paso 74429226
##  5 El Paso 61624856
##  6 El Paso 71212091
##  7 El Paso 72366107
##  8 El Paso 86547783
##  9 El Paso 64083406
## 10 El Paso 67015215
## #  with 45 more rows

Which is a bit verbose.

In order to do this with the tidyverse, you would start with the dataset, the run two verbs over it, connected with the pipe.

library(tidyverse)
iris_tibble <- as_tibble(iris)

txhousing %>%
  filter(city == "El Paso") %>%
  filter(year >= 2011) %>%
  select(1,5)

## # A tibble: 55 x 2
##    city      volume
##    <chr>      <dbl>
##  1 El Paso 66136913
##  2 El Paso 44840808
##  3 El Paso 63884923
##  4 El Paso 74429226
##  5 El Paso 61624856
##  6 El Paso 71212091
##  7 El Paso 72366107
##  8 El Paso 86547783
##  9 El Paso 64083406
## 10 El Paso 67015215
## #  with 45 more rows
…
listings
Total active listings

inventory
Months inventory : amount of time it would take to sell all current listings at current pace of sales.

Select

The select command works by Selecting the columns you wish to work with. It can either take the index of the column using numbers, or the text. There are other options like asking for columns that start or end with certain text.

txhousing %>%
  select(1,2)

## # A tibble: 8,602 x 2
##    city     year
##    <chr>   <int>
##  1 Abilene  2000
##  2 Abilene  2000
##  3 Abilene  2000
##  4 Abilene  2000
##  5 Abilene  2000
##  6 Abilene  2000
##  7 Abilene  2000
##  8 Abilene  2000
##  9 Abilene  2000
## 10 Abilene  2000
## #  with 8,592 more rows

txhousing %>%
  select(1:3)

## # A tibble: 8,602 x 3
##    city     year month
##    <chr>   <int> <int>
##  1 Abilene  2000     1
##  2 Abilene  2000     2
##  3 Abilene  2000     3
##  4 Abilene  2000     4
##  5 Abilene  2000     5
##  6 Abilene  2000     6
##  7 Abilene  2000     7
##  8 Abilene  2000     8
##  9 Abilene  2000     9
## 10 Abilene  2000    10
## #  with 8,592 more rows

txhousing %>%
  select(city, sales:median)

## # A tibble: 8,602 x 4
##    city    sales   volume median
##    <chr>   <dbl>    <dbl>  <dbl>
##  1 Abilene    72  5380000  71400
##  2 Abilene    98  6505000  58700
##  3 Abilene   130  9285000  58100
##  4 Abilene    98  9730000  68600
##  5 Abilene   141 10590000  67300
##  6 Abilene   156 13910000  66900
##  7 Abilene   152 12635000  73500
##  8 Abilene   131 10710000  75000
##  9 Abilene   104  7615000  64500
## 10 Abilene   101  7040000  59300
## #  with 8,592 more rows

txhousing %>%
  select(starts_with("ci"))

## # A tibble: 8,602 x 1
##    city   
##    <chr>  
##  1 Abilene
##  2 Abilene
##  3 Abilene
##  4 Abilene
##  5 Abilene
##  6 Abilene
##  7 Abilene
##  8 Abilene
##  9 Abilene
## 10 Abilene
## #  with 8,592 more rows

txhousing %>%
  select(-city)

## # A tibble: 8,602 x 8
##     year month sales   volume median listings inventory  date
##    <int> <int> <dbl>    <dbl>  <dbl>    <dbl>     <dbl> <dbl>
##  1  2000     1    72  5380000  71400      701       6.3 2000 
##  2  2000     2    98  6505000  58700      746       6.6 2000.
##  3  2000     3   130  9285000  58100      784       6.8 2000.
##  4  2000     4    98  9730000  68600      785       6.9 2000.
##  5  2000     5   141 10590000  67300      794       6.8 2000.
##  6  2000     6   156 13910000  66900      780       6.6 2000.
##  7  2000     7   152 12635000  73500      742       6.2 2000.
##  8  2000     8   131 10710000  75000      765       6.4 2001.
##  9  2000     9   104  7615000  64500      771       6.5 2001.
## 10  2000    10   101  7040000  59300      764       6.6 2001.
## #  with 8,592 more rows

Filter

Once we have the columns we want to work with, we can then pick the rows that are of interest. We do this with the filter function. Here when asking for matches of character strings, you need to use the ==. R will remind you if you forget. The filter command can be combined with the logical operators. Remember this includes negation operators.

txhousing %>%
  filter(city == "El Paso")

## # A tibble: 187 x 9
##    city     year month sales   volume median listings inventory  date
##    <chr>   <int> <int> <dbl>    <dbl>  <dbl>    <dbl>     <dbl> <dbl>
##  1 El Paso  2000     1   306 31525000  82100     2512       5.8 2000 
##  2 El Paso  2000     2   346 32300000  76600     2572       5.9 2000.
##  3 El Paso  2000     3   492 47505000  77100     2549       5.8 2000.
##  4 El Paso  2000     4   382 37915000  79400     2525       5.9 2000.
##  5 El Paso  2000     5   459 43335000  80100     2552       5.9 2000.
##  6 El Paso  2000     6   486 47880000  83200       NA      NA   2000.
##  7 El Paso  2000     7   422 42925000  82600     2685       6.4 2000.
##  8 El Paso  2000     8   538 53800000  81700     3396       8   2001.
##  9 El Paso  2000     9   382 36775000  78300     2661       6.3 2001.
## 10 El Paso  2000    10   392 40535000  81900     2704       6.5 2001.
## #  with 177 more rows

txhousing %>%
  filter(city == "El Paso" | city == "San Antonio")

## # A tibble: 374 x 9
##    city     year month sales   volume median listings inventory  date
##    <chr>   <int> <int> <dbl>    <dbl>  <dbl>    <dbl>     <dbl> <dbl>
##  1 El Paso  2000     1   306 31525000  82100     2512       5.8 2000 
##  2 El Paso  2000     2   346 32300000  76600     2572       5.9 2000.
##  3 El Paso  2000     3   492 47505000  77100     2549       5.8 2000.
##  4 El Paso  2000     4   382 37915000  79400     2525       5.9 2000.
##  5 El Paso  2000     5   459 43335000  80100     2552       5.9 2000.
##  6 El Paso  2000     6   486 47880000  83200       NA      NA   2000.
##  7 El Paso  2000     7   422 42925000  82600     2685       6.4 2000.
##  8 El Paso  2000     8   538 53800000  81700     3396       8   2001.
##  9 El Paso  2000     9   382 36775000  78300     2661       6.3 2001.
## 10 El Paso  2000    10   392 40535000  81900     2704       6.5 2001.
## #  with 364 more rows

txhousing %>%
  filter(city == "El Paso" | city == "San Antonio") %>%
  filter(year >= 2004) 

## # A tibble: 278 x 9
##    city     year month sales   volume median listings inventory  date
##    <chr>   <int> <int> <dbl>    <dbl>  <dbl>    <dbl>     <dbl> <dbl>
##  1 El Paso  2004     1   435 48330000  93500     3028       5.8 2004 
##  2 El Paso  2004     2   441 48215000  89600     3162       6   2004.
##  3 El Paso  2004     3   551 60105000  89000     3288       6.2 2004.
##  4 El Paso  2004     4   579 64980000  89900     3320       6.2 2004.
##  5 El Paso  2004     5   576 68890000  97500     3271       6.1 2004.
##  6 El Paso  2004     6   586 72925000  97200       NA      NA   2004.
##  7 El Paso  2004     7   619 77745000  99900       NA      NA   2004.
##  8 El Paso  2004     8   462 54045000  95400       NA      NA   2005.
##  9 El Paso  2004     9   294 29910000  85800       NA      NA   2005.
## 10 El Paso  2004    10   484 56625000  94800       NA      NA   2005.
## #  with 268 more rows

txhousing %>%
  filter(city == "El Paso" | city == "San Antonio") %>%
  filter(year >= 2004) %>%
  filter(month != 1)

## # A tibble: 254 x 9
##    city     year month sales   volume median listings inventory  date
##    <chr>   <int> <int> <dbl>    <dbl>  <dbl>    <dbl>     <dbl> <dbl>
##  1 El Paso  2004     2   441 48215000  89600     3162       6   2004.
##  2 El Paso  2004     3   551 60105000  89000     3288       6.2 2004.
##  3 El Paso  2004     4   579 64980000  89900     3320       6.2 2004.
##  4 El Paso  2004     5   576 68890000  97500     3271       6.1 2004.
##  5 El Paso  2004     6   586 72925000  97200       NA      NA   2004.
##  6 El Paso  2004     7   619 77745000  99900       NA      NA   2004.
##  7 El Paso  2004     8   462 54045000  95400       NA      NA   2005.
##  8 El Paso  2004     9   294 29910000  85800       NA      NA   2005.
##  9 El Paso  2004    10   484 56625000  94800       NA      NA   2005.
## 10 El Paso  2004    11   470 55690000  96200       NA      NA   2005.
## #  with 244 more rows

Mutate

The mutate command will create new variables.

txhousing %>%
  mutate(zSales = scale(sales))

## # A tibble: 8,602 x 10
##    city   year month sales volume median listings inventory  date
##    <chr> <int> <int> <dbl>  <dbl>  <dbl>    <dbl>     <dbl> <dbl>
##  1 Abil  2000     1    72 5.38e6  71400      701       6.3 2000 
##  2 Abil  2000     2    98 6.50e6  58700      746       6.6 2000.
##  3 Abil  2000     3   130 9.28e6  58100      784       6.8 2000.
##  4 Abil  2000     4    98 9.73e6  68600      785       6.9 2000.
##  5 Abil  2000     5   141 1.06e7  67300      794       6.8 2000.
##  6 Abil  2000     6   156 1.39e7  66900      780       6.6 2000.
##  7 Abil  2000     7   152 1.26e7  73500      742       6.2 2000.
##  8 Abil  2000     8   131 1.07e7  75000      765       6.4 2001.
##  9 Abil  2000     9   104 7.62e6  64500      771       6.5 2001.
## 10 Abil  2000    10   101 7.04e6  59300      764       6.6 2001.
## #  with 8,592 more rows, and 1 more variable: zSales[,1] <dbl>

txhousing %>%
  filter(city == "El Paso" | city == "San Antonio") %>%
  filter(year >= 2004) %>%
  filter(month != 1) %>%
  mutate(zScale = scale(sales))

## # A tibble: 254 x 10
##    city   year month sales volume median listings inventory  date
##    <chr> <int> <int> <dbl>  <dbl>  <dbl>    <dbl>     <dbl> <dbl>
##  1 El P  2004     2   441 4.82e7  89600     3162       6   2004.
##  2 El P  2004     3   551 6.01e7  89000     3288       6.2 2004.
##  3 El P  2004     4   579 6.50e7  89900     3320       6.2 2004.
##  4 El P  2004     5   576 6.89e7  97500     3271       6.1 2004.
##  5 El P  2004     6   586 7.29e7  97200       NA      NA   2004.
##  6 El P  2004     7   619 7.77e7  99900       NA      NA   2004.
##  7 El P  2004     8   462 5.40e7  95400       NA      NA   2005.
##  8 El P  2004     9   294 2.99e7  85800       NA      NA   2005.
##  9 El P  2004    10   484 5.66e7  94800       NA      NA   2005.
## 10 El P  2004    11   470 5.57e7  96200       NA      NA   2005.
## #  with 244 more rows, and 1 more variable: zScale[,1] <dbl>

Arrange

Arrange will sort our data.

txhousing %>%
  filter(city == "El Paso" | city == "San Antonio") %>%
  filter(year >= 2004) %>%
  filter(month != 1) %>%
  mutate(zScale = scale(sales)) %>%
  arrange(sales)

## # A tibble: 254 x 10
##    city   year month sales volume median listings inventory  date
##    <chr> <int> <int> <dbl>  <dbl>  <dbl>    <dbl>     <dbl> <dbl>
##  1 El P  2011     2   287 4.48e7 134500     3023       6.5 2011.
##  2 El P  2008     4   292 4.45e7 126700     4840      10.9 2008.
##  3 El P  2004     9   294 2.99e7  85800       NA      NA   2005.
##  4 El P  2009     2   326 4.97e7 130900     4530      11.4 2009.
##  5 El P  2008     2   328 5.34e7 133800     4374       9   2008.
##  6 El P  2013     2   350 5.42e7 139000     3425       7.3 2013.
##  7 El P  2005     9   356 4.23e7 111300       NA      NA   2006.
##  8 El P  2007    12   362 5.56e7 133500     4625       8.9 2008.
##  9 El P  2008    11   362 5.65e7 132800     4773      12   2009.
## 10 El P  2008    12   363 5.80e7 136300     4454      11.2 2009.
## #  with 244 more rows, and 1 more variable: zScale[,1] <dbl>

txhousing %>%
  filter(city == "El Paso" | city == "San Antonio") %>%
  filter(year >= 2004) %>%
  filter(month != 1) %>%
  mutate(zScale = scale(sales)) %>%
  arrange(sales, -year)

## # A tibble: 254 x 10
##    city   year month sales volume median listings inventory  date
##    <chr> <int> <int> <dbl>  <dbl>  <dbl>    <dbl>     <dbl> <dbl>
##  1 El P  2011     2   287 4.48e7 134500     3023       6.5 2011.
##  2 El P  2008     4   292 4.45e7 126700     4840      10.9 2008.
##  3 El P  2004     9   294 2.99e7  85800       NA      NA   2005.
##  4 El P  2009     2   326 4.97e7 130900     4530      11.4 2009.
##  5 El P  2008     2   328 5.34e7 133800     4374       9   2008.
##  6 El P  2013     2   350 5.42e7 139000     3425       7.3 2013.
##  7 El P  2005     9   356 4.23e7 111300       NA      NA   2006.
##  8 El P  2008    11   362 5.65e7 132800     4773      12   2009.
##  9 El P  2007    12   362 5.56e7 133500     4625       8.9 2008.
## 10 El P  2010     2   363 5.16e7 126300     3321       7.4 2010.
## #  with 244 more rows, and 1 more variable: zScale[,1] <dbl>
…
